<?xml version="1.0" encoding="utf-8"?>
<!-- Generator: Adobe Illustrator 19.0.0, SVG Export Plug-In . SVG Version: 6.00 Build 0)  -->
<svg version="1.1" id="Layer_1" xmlns="http://www.w3.org/2000/svg" xmlns:xlink="http://www.w3.org/1999/xlink" x="0px" y="0px"
	 viewBox="0 0 100 100" style="enable-background:new 0 0 100 100;" xml:space="preserve">
<style type="text/css">
	.st0{fill:#5F8CC9;}
	.st1{fill:#FFFFFF;}
</style>
<g id="XMLID_37_">
	<g id="XMLID_56_">
		<path id="XMLID_437_" class="st0" d="M91.5,92H9c-3,0-5.4-2.4-5.4-5.4V14.9c0-3,2.4-5.4,5.4-5.4h82.5c3,0,5.4,2.4,5.4,5.4v71.7
			C96.9,89.6,94.5,92,91.5,92z"/>
	</g>
	<g id="XMLID_38_">
		<g id="XMLID_41_">
			<g id="XMLID_51_">
				<g id="XMLID_52_">
					<path id="XMLID_34_" class="st1" d="M51.3,79.6H23c-0.7,0-1.2-0.5-1.2-1.2v-5.7c0-0.1,0-0.2,0-0.3c0.6-2.5,1.6-4.9,4.5-5.8
						l10.5-3.5c2.5-1,3.6-5.1,3.9-6.7c-1.8-1.7-3.5-4.2-3.5-6.4c0-0.8-0.2-1.2-0.4-1.2c-0.4-0.1-0.6-0.3-0.7-0.7
						c-0.1-0.3-1.3-3.2-1.3-5.2c0-0.1,0-0.2,0-0.3c0.1-0.5,0.5-1.3,1.1-1.7v-6.3c0-4.9,4.5-11.8,11.8-11.8c7.2,0,9.2,3.7,9.4,5.5
						c1.2,0.9,2.4,2.5,2.4,6.3V41c0.7,0.4,1,1.2,1.1,1.7c0,0.1,0,0.2,0,0.3c0,1.9-1.1,4.8-1.3,5.2c-0.1,0.4-0.4,0.6-0.8,0.7
						c0,0-0.3,0.4-0.3,1.2c0,2.2-1.7,4.7-3.5,6.4c0.2,1.5,1.4,5.6,3.9,6.7c0.6,0.2,1,0.9,0.7,1.5c-0.2,0.6-0.8,0.9-1.4,0.7L58,65.4
						c-4.2-1.7-5.5-7.9-5.5-9.4c0-0.4,0.2-0.7,0.4-0.9c1.5-1.3,3.1-3.4,3.1-5c0-1.8,0.7-2.7,1.4-3.2c0.3-0.9,0.9-2.6,0.9-3.7
						c0-0.1-0.1-0.2-0.1-0.2c-0.7,0-1-0.5-1-1.1v-7.1c0-3.5-1.1-4.2-1.6-4.5c-0.3-0.2-0.8-0.5-0.8-1.1c0-0.1,0-0.3,0.1-0.5
						c-0.2-0.9-1.6-3.4-7.1-3.4c-5.8,0-9.4,5.6-9.4,9.4v7.1c0,0.7-0.5,1.2-1.2,1.2c0.1,0,0,0.1,0,0.2c0.1,1.1,0.6,2.8,0.9,3.7
						c0.7,0.5,1.4,1.4,1.4,3.2c0,1.6,1.6,3.7,3.1,5c0.3,0.2,0.4,0.6,0.4,0.9c0,1.5-1.4,7.7-5.5,9.4L27,68.9c-1.7,0.6-2.3,1.9-2.9,4
						v4.3h27.2c0.7,0,1.2,0.5,1.2,1.2S52,79.6,51.3,79.6z"/>
				</g>
			</g>
			<g id="XMLID_44_">
				<path id="XMLID_46_" class="st1" d="M60.9,79.6H56c-0.7,0-1.2-0.5-1.2-1.2v-4.9c0-0.3,0.1-0.6,0.3-0.8l7.9-7.9
					c-0.1-0.4-0.1-0.7-0.1-1.1c0-4.3,3.5-7.7,7.7-7.7s7.7,3.5,7.7,7.7c0,4.6-4,8.4-8.8,7.6l-7.9,7.9C61.6,79.5,61.3,79.6,60.9,79.6z
					 M57.2,77.2h3.2l8-8c0.3-0.3,0.7-0.4,1.1-0.3c0.4,0.1,0.8,0.1,1.2,0.1c3,0,5.4-2.4,5.4-5.4s-2.4-5.4-5.4-5.4
					c-3,0-5.4,2.4-5.4,5.4c0,0.4,0,0.8,0.1,1.2c0.1,0.4,0,0.8-0.3,1.1l-8,8V77.2z"/>
			</g>
			<g id="XMLID_42_">
				<circle id="XMLID_25_" class="st1" cx="72.6" cy="61.9" r="1.2"/>
			</g>
		</g>
	</g>
</g>
</svg>
